{
  "player": "mpv",
  "quality": "best",
  "colors": "true",
  "printOfflineSubscriptions": "true",
  "subscriptions": [
    {
      "streamer": "firedragon"
    },
    {
      "streamer": "linkus7"
    },
    {
      "streamer": "sidedwilliams"
    },
    {
      "streamer": "averagetrey"
    },
    {
      "streamer": "monado"
    },
    {
      "streamer": "xisuma"
    }
  ],
  "apiToken": "4s9j81za3pna9k40s2wjnsg8gxv775",
  "apiTokenExpiry": "1620478562",
  "lastSubscriptionUpdate": "1620401595"
}